<svg width="791" height="165" viewBox="0 0 791 165" fill="none" xmlns="http://www.w3.org/2000/svg">
<path d="M0.999967 1C14.5085 26.8502 96.8607 81.3511 318.201 92.5529C594.876 106.555 752.476 100.452 790 164" stroke="#0E9949" stroke-dasharray="20 20"/>
</svg>
